EDA Project 1
…
sum_popbeers$Var2 <- factor(sum_popbeers$Var2, levels = sum_popbeers$Var2[order(-sum_popbeers$sumFreq)])
#graph how many of each of the top 10 beers are being produced
top10beer_plot <- sum_popbeers[1:10,] %>% ggplot(mapping = aes(x = Var2, y = sumFreq, fill = Var2)) + geom_col(show.legend = FALSE) + geom_text(aes(label = sumFreq),position=position_dodge(width=0.9), vjust=-0.25) +
  scale_fill_brewer(palette="Paired") + labs(title = "Count of Top 10 Styles of Beers Being Produced", x = "Style of Beer", y = "Numbers of Beers of This Style")
#create dataframe where each row reprents most popular beer style for each state
mostpopbeer_state <- freq_table %>% group_by(Var1) %>% slice(which.max(Freq))
#graph most popular beers by state
beer_by_state_plot <- mostpopbeer_state %>% ggplot(mapping = aes(x = Var1, y = Freq, fill = Var2)) + geom_col() + geom_text(aes(label = Freq), position=position_dodge(width=0.9), vjust=-0.25) +
  scale_fill_brewer(palette="Paired") + labs(title = "Count of Most Popular Beers Being Produced By State", x = "State", y = "Numbers of Beers of This Style", fill = "Style of Beer")
#make table column names more human friendly
names(sum_popbeers)[names(sum_popbeers) == "Var2"] <- "Style of Beer"
names(sum_popbeers)[names(sum_popbeers) == "sumFreq"] <- "Number Being Produced"
sum_popbeers

## # A tibble: 99 x 2
##    `Style of Beer`                `Number Being Produced`
##    <fct>                                            <int>
##  1 American IPA                                       424
##  2 American Pale Ale (APA)                            245
##  3 American Amber / Red Ale                           133
##  4 American Blonde Ale                                108
##  5 American Double / Imperial IPA                     105
##  6 American Pale Wheat Ale                             97
##  7 American Brown Ale                                  70
##  8 American Porter                                     68
##  9 Saison / Farmhouse Ale                              52
## 10 Witbier                                             51
## # ... with 89 more rows

names(mostpopbeer_state)[names(mostpopbeer_state) == "Var1"] <- "State Name"
names(mostpopbeer_state)[names(mostpopbeer_state) == "Var2"] <- "Style of Beer"
names(mostpopbeer_state)[names(mostpopbeer_state) == "Freq"] <- "Number Being Produced"
mostpopbeer_state

## # A tibble: 51 x 3
## # Groups:   State Name [51]
##    `State Name` `Style of Beer`          `Number Being Produced`
##    <fct>        <fct>                                      <int>
##  1 " AK"        American IPA                                   7
##  2 " AL"        American IPA                                   2
##  3 " AR"        American Amber / Red Ale                       1
##  4 " AZ"        American IPA                                   9
##  5 " CA"        American IPA                                  45
##  6 " CO"        American IPA                                  40
##  7 " CT"        American Amber / Red Ale                       4
##  8 " DC"        American Blonde Ale                            1
##  9 " DE"        American IPA                                   1
## 10 " FL"        American IPA                                  19
## # ... with 41 more rows
…
